info face="Ubuntu Mono Bold" size=32 bold=1 italic=0 charset="" unicode=0 stretchH=100 smooth=1 aa=1 padding=1,1,1,1 spacing=-2,-2
common lineHeight=33 base=27 scaleW=512 scaleH=512 pages=1 packed=0
page id=0 file="font.png"
chars count=627
char id=0       x=0    y=0    width=0    height=0    xoffset=-1   yoffset=0    xadvance=16   page=0    chnl=0 
char id=13      x=0    y=0    width=0    height=0    xoffset=-1   yoffset=0    xadvance=0    page=0    chnl=0 
char id=33      x=501  y=227  width=8    height=23   xoffset=5    yoffset=5    xadvance=16   page=0    chnl=0 
char id=34      x=36   y=471  width=13   height=12   xoffset=2    yoffset=3    xadvance=16   page=0    chnl=0 
char id=35      x=292  y=251  width=17   height=23   xoffset=0    yoffset=5    xadvance=16   page=0    chnl=0 
char id=36      x=441  y=64   width=17   height=28   xoffset=0    yoffset=3    xadvance=16   page=0    chnl=0 
char id=37      x=309  y=251  width=18   height=23   xoffset=-1   yoffset=5    xadvance=16   page=0    chnl=0 
char id=38      x=327  y=251  width=17   height=23   xoffset=0    yoffset=5    xadvance=16   page=0    chnl=0 
char id=39      x=501  y=413  width=7    height=13   xoffset=5    yoffset=3    xadvance=16   page=0    chnl=0 
char id=40      x=18   y=0    width=12   height=30   xoffset=2    yoffset=3    xadvance=16   page=0    chnl=0 
char id=41      x=30   y=0    width=13   height=30   xoffset=2    yoffset=3    xadvance=16   page=0    chnl=0 
char id=42      x=321  y=453  width=16   height=16   xoffset=0    yoffset=5    xadvance=16   page=0    chnl=0 
char id=43      x=151  y=413  width=16   height=18   xoffset=0    yoffset=10   xadvance=16   page=0    chnl=0 
char id=44      x=474  y=453  width=10   height=13   xoffset=3    yoffset=20   xadvance=16   page=0    chnl=0 
char id=45      x=218  y=471  width=12   height=7    xoffset=3    yoffset=15   xadvance=16   page=0    chnl=0 
char id=46      x=174  y=471  width=8    height=8    xoffset=4    yoffset=20   xadvance=16   page=0    chnl=0 
char id=47      x=43   y=0    width=16   height=30   xoffset=0    yoffset=3    xadvance=16   page=0    chnl=0 
char id=48      x=153  y=390  width=16   height=22   xoffset=0    yoffset=6    xadvance=16   page=0    chnl=0 
char id=49      x=344  y=251  width=16   height=23   xoffset=1    yoffset=5    xadvance=16   page=0    chnl=0 
char id=50      x=360  y=251  width=17   height=23   xoffset=0    yoffset=5    xadvance=16   page=0    chnl=0 
char id=51      x=377  y=251  width=16   height=23   xoffset=0    yoffset=5    xadvance=16   page=0    chnl=0 
char id=52      x=393  y=251  width=17   height=23   xoffset=0    yoffset=5    xadvance=16   page=0    chnl=0 
char id=53      x=410  y=251  width=16   height=23   xoffset=0    yoffset=5    xadvance=16   page=0    chnl=0 
char id=54      x=426  y=251  width=16   height=23   xoffset=0    yoffset=5    xadvance=16   page=0    chnl=0 
char id=55      x=442  y=251  width=15   height=23   xoffset=1    yoffset=5    xadvance=16   page=0    chnl=0 
char id=56      x=457  y=251  width=17   height=23   xoffset=0    yoffset=5    xadvance=16   page=0    chnl=0 
char id=57      x=474  y=251  width=16   height=23   xoffset=0    yoffset=5    xadvance=16   page=0    chnl=0 
char id=58      x=503  y=275  width=8    height=18   xoffset=4    yoffset=10   xadvance=16   page=0    chnl=0 
char id=59      x=500  y=177  width=10   height=23   xoffset=3    yoffset=10   xadvance=16   page=0    chnl=0 
char id=60      x=337  y=453  width=16   height=16   xoffset=0    yoffset=11   xadvance=16   page=0    chnl=0 
char id=61      x=49   y=471  width=17   height=12   xoffset=0    yoffset=12   xadvance=16   page=0    chnl=0 
char id=62      x=353  y=453  width=17   height=16   xoffset=0    yoffset=11   xadvance=16   page=0    chnl=0 
char id=63      x=490  y=251  width=14   height=23   xoffset=1    yoffset=5    xadvance=16   page=0    chnl=0 
char id=64      x=259  y=149  width=17   height=27   xoffset=0    yoffset=5    xadvance=16   page=0    chnl=0 
char id=65      x=0    y=275  width=18   height=23   xoffset=-1   yoffset=5    xadvance=16   page=0    chnl=0 
char id=66      x=18   y=275  width=16   height=23   xoffset=1    yoffset=5    xadvance=16   page=0    chnl=0 
char id=67      x=34   y=275  width=16   height=23   xoffset=0    yoffset=5    xadvance=16   page=0    chnl=0 
char id=68      x=50   y=275  width=16   height=23   xoffset=1    yoffset=5    xadvance=16   page=0    chnl=0 
char id=69      x=66   y=275  width=16   height=23   xoffset=1    yoffset=5    xadvance=16   page=0    chnl=0 
char id=70      x=82   y=275  width=15   height=23   xoffset=1    yoffset=5    xadvance=16   page=0    chnl=0 
char id=71      x=97   y=275  width=17   height=23   xoffset=0    yoffset=5    xadvance=16   page=0    chnl=0 
char id=72      x=114  y=275  width=17   height=23   xoffset=0    yoffset=5    xadvance=16   page=0    chnl=0 
char id=73      x=131  y=275  width=15   height=23   xoffset=1    yoffset=5    xadvance=16   page=0    chnl=0 
char id=74      x=146  y=275  width=16   height=23   xoffset=0    yoffset=5    xadvance=16   page=0    chnl=0 
char id=75      x=162  y=275  width=17   height=23   xoffset=0    yoffset=5    xadvance=16   page=0    chnl=0 
char id=76      x=179  y=275  width=16   height=23   xoffset=1    yoffset=5    xadvance=16   page=0    chnl=0 
char id=77      x=195  y=275  width=17   height=23   xoffset=0    yoffset=5    xadvance=16   page=0    chnl=0 
char id=78      x=212  y=275  width=17   height=23   xoffset=0    yoffset=5    xadvance=16   page=0    chnl=0 
char id=79      x=169  y=390  width=17   height=22   xoffset=0    yoffset=6    xadvance=16   page=0    chnl=0 
char id=80      x=229  y=275  width=16   height=23   xoffset=1    yoffset=5    xadvance=16   page=0    chnl=0 
char id=81      x=276  y=149  width=17   height=27   xoffset=0    yoffset=6    xadvance=16   page=0    chnl=0 
char id=82      x=245  y=275  width=15   height=23   xoffset=1    yoffset=5    xadvance=16   page=0    chnl=0 
char id=83      x=260  y=275  width=17   height=23   xoffset=0    yoffset=5    xadvance=16   page=0    chnl=0 
char id=84      x=277  y=275  width=17   height=23   xoffset=0    yoffset=5    xadvance=16   page=0    chnl=0 
char id=85      x=294  y=275  width=17   height=23   xoffset=0    yoffset=5    xadvance=16   page=0    chnl=0 
char id=86      x=311  y=275  width=17   height=23   xoffset=-1   yoffset=5    xadvance=16   page=0    chnl=0 
char id=87      x=328  y=275  width=16   height=23   xoffset=0    yoffset=5    xadvance=16   page=0    chnl=0 
char id=88      x=344  y=275  width=18   height=23   xoffset=-1   yoffset=5    xadvance=16   page=0    chnl=0 
char id=89      x=362  y=275  width=18   height=23   xoffset=-1   yoffset=5    xadvance=16   page=0    chnl=0 
char id=90      x=380  y=275  width=17   height=23   xoffset=0    yoffset=5    xadvance=16   page=0    chnl=0 
char id=91      x=59   y=0    width=11   height=30   xoffset=3    yoffset=3    xadvance=16   page=0    chnl=0 
char id=92      x=70   y=0    width=15   height=30   xoffset=1    yoffset=3    xadvance=16   page=0    chnl=0 
char id=93      x=85   y=0    width=12   height=30   xoffset=2    yoffset=3    xadvance=16   page=0    chnl=0 
char id=94      x=484  y=453  width=18   height=13   xoffset=-1   yoffset=5    xadvance=16   page=0    chnl=0 
char id=95      x=230  y=471  width=19   height=6    xoffset=-1   yoffset=27   xadvance=16   page=0    chnl=0 
char id=96      x=182  y=471  width=9    height=8    xoffset=4    yoffset=4    xadvance=16   page=0    chnl=0 
char id=97      x=167  y=413  width=16   height=18   xoffset=0    yoffset=10   xadvance=16   page=0    chnl=0 
char id=98      x=475  y=149  width=16   height=25   xoffset=1    yoffset=3    xadvance=16   page=0    chnl=0 
char id=99      x=183  y=413  width=16   height=18   xoffset=0    yoffset=10   xadvance=16   page=0    chnl=0 
char id=100     x=491  y=149  width=16   height=25   xoffset=0    yoffset=3    xadvance=16   page=0    chnl=0 
char id=101     x=199  y=413  width=17   height=18   xoffset=0    yoffset=10   xadvance=16   page=0    chnl=0 
char id=102     x=0    y=177  width=17   height=25   xoffset=0    yoffset=3    xadvance=16   page=0    chnl=0 
char id=103     x=397  y=275  width=16   height=23   xoffset=0    yoffset=10   xadvance=16   page=0    chnl=0 
char id=104     x=17   y=177  width=15   height=25   xoffset=1    yoffset=3    xadvance=16   page=0    chnl=0 
char id=105     x=32   y=177  width=16   height=25   xoffset=0    yoffset=3    xadvance=16   page=0    chnl=0 
char id=106     x=97   y=0    width=15   height=30   xoffset=0    yoffset=3    xadvance=16   page=0    chnl=0 
char id=107     x=363  y=149  width=16   height=26   xoffset=1    yoffset=3    xadvance=16   page=0    chnl=0 
char id=108     x=48   y=177  width=16   height=25   xoffset=0    yoffset=3    xadvance=16   page=0    chnl=0 
char id=109     x=216  y=413  width=17   height=18   xoffset=0    yoffset=10   xadvance=16   page=0    chnl=0 
char id=110     x=233  y=413  width=15   height=18   xoffset=1    yoffset=10   xadvance=16   page=0    chnl=0 
char id=111     x=186  y=453  width=17   height=17   xoffset=0    yoffset=11   xadvance=16   page=0    chnl=0 
char id=112     x=413  y=275  width=16   height=23   xoffset=1    yoffset=10   xadvance=16   page=0    chnl=0 
char id=113     x=429  y=275  width=16   height=23   xoffset=0    yoffset=10   xadvance=16   page=0    chnl=0 
char id=114     x=248  y=413  width=14   height=18   xoffset=2    yoffset=10   xadvance=16   page=0    chnl=0 
char id=115     x=262  y=413  width=14   height=18   xoffset=1    yoffset=10   xadvance=16   page=0    chnl=0 
char id=116     x=84   y=413  width=17   height=21   xoffset=0    yoffset=7    xadvance=16   page=0    chnl=0 
char id=117     x=276  y=413  width=15   height=18   xoffset=1    yoffset=10   xadvance=16   page=0    chnl=0 
char id=118     x=291  y=413  width=17   height=18   xoffset=-1   yoffset=10   xadvance=16   page=0    chnl=0 
char id=119     x=308  y=413  width=18   height=18   xoffset=-1   yoffset=10   xadvance=16   page=0    chnl=0 
char id=120     x=326  y=413  width=16   height=18   xoffset=0    yoffset=10   xadvance=16   page=0    chnl=0 
char id=121     x=445  y=275  width=16   height=23   xoffset=0    yoffset=10   xadvance=16   page=0    chnl=0 
char id=122     x=342  y=413  width=15   height=18   xoffset=1    yoffset=10   xadvance=16   page=0    chnl=0 
char id=123     x=112  y=0    width=16   height=30   xoffset=1    yoffset=3    xadvance=16   page=0    chnl=0 
char id=124     x=128  y=0    width=7    height=30   xoffset=5    yoffset=3    xadvance=16   page=0    chnl=0 
char id=125     x=135  y=0    width=15   height=30   xoffset=1    yoffset=3    xadvance=16   page=0    chnl=0 
char id=126     x=142  y=471  width=17   height=9    xoffset=0    yoffset=14   xadvance=16   page=0    chnl=0 
char id=160     x=0    y=0    width=0    height=0    xoffset=-1   yoffset=0    xadvance=16   page=0    chnl=0 
char id=161     x=461  y=275  width=8    height=23   xoffset=5    yoffset=10   xadvance=16   page=0    chnl=0 
char id=162     x=379  y=149  width=16   height=26   xoffset=0    yoffset=5    xadvance=16   page=0    chnl=0 
char id=163     x=469  y=275  width=16   height=23   xoffset=0    yoffset=5    xadvance=16   page=0    chnl=0 
char id=164     x=203  y=453  width=15   height=17   xoffset=0    yoffset=9    xadvance=16   page=0    chnl=0 
char id=165     x=485  y=275  width=18   height=23   xoffset=-1   yoffset=5    xadvance=16   page=0    chnl=0 
char id=166     x=150  y=0    width=7    height=30   xoffset=5    yoffset=3    xadvance=16   page=0    chnl=0 
char id=167     x=395  y=149  width=15   height=26   xoffset=1    yoffset=5    xadvance=16   page=0    chnl=0 
char id=168     x=249  y=471  width=12   height=6    xoffset=2    yoffset=4    xadvance=16   page=0    chnl=0 
char id=169     x=218  y=453  width=17   height=17   xoffset=0    yoffset=11   xadvance=16   page=0    chnl=0 
char id=170     x=449  y=453  width=13   height=14   xoffset=2    yoffset=5    xadvance=16   page=0    chnl=0 
char id=171     x=370  y=453  width=15   height=15   xoffset=1    yoffset=11   xadvance=16   page=0    chnl=0 
char id=172     x=0    y=471  width=16   height=13   xoffset=0    yoffset=14   xadvance=16   page=0    chnl=0 
char id=173     x=0    y=0    width=0    height=0    xoffset=-1   yoffset=0    xadvance=16   page=0    chnl=0 
char id=174     x=235  y=453  width=17   height=17   xoffset=0    yoffset=11   xadvance=16   page=0    chnl=0 
char id=175     x=261  y=471  width=12   height=6    xoffset=2    yoffset=4    xadvance=16   page=0    chnl=0 
char id=176     x=66   y=471  width=12   height=12   xoffset=2    yoffset=3    xadvance=15   page=0    chnl=0 
char id=177     x=101  y=413  width=16   height=20   xoffset=0    yoffset=8    xadvance=16   page=0    chnl=0 
char id=178     x=462  y=453  width=12   height=14   xoffset=2    yoffset=5    xadvance=16   page=0    chnl=0 
char id=179     x=385  y=453  width=11   height=15   xoffset=3    yoffset=5    xadvance=16   page=0    chnl=0 
char id=180     x=191  y=471  width=10   height=8    xoffset=4    yoffset=4    xadvance=16   page=0    chnl=0 
char id=181     x=0    y=298  width=15   height=23   xoffset=1    yoffset=10   xadvance=16   page=0    chnl=0 
char id=182     x=458  y=64   width=17   height=28   xoffset=0    yoffset=5    xadvance=16   page=0    chnl=0 
char id=183     x=201  y=471  width=8    height=8    xoffset=4    yoffset=14   xadvance=16   page=0    chnl=0 
char id=184     x=209  y=471  width=9    height=8    xoffset=4    yoffset=25   xadvance=16   page=0    chnl=0 
char id=185     x=396  y=453  width=12   height=15   xoffset=3    yoffset=5    xadvance=16   page=0    chnl=0 
char id=186     x=408  y=453  width=13   height=15   xoffset=1    yoffset=5    xadvance=16   page=0    chnl=0 
char id=187     x=421  y=453  width=14   height=15   xoffset=1    yoffset=11   xadvance=16   page=0    chnl=0 
char id=188     x=15   y=298  width=19   height=23   xoffset=-1   yoffset=5    xadvance=16   page=0    chnl=0 
char id=189     x=34   y=298  width=19   height=23   xoffset=-1   yoffset=5    xadvance=16   page=0    chnl=0 
char id=190     x=53   y=298  width=17   height=23   xoffset=0    yoffset=5    xadvance=16   page=0    chnl=0 
char id=191     x=70   y=298  width=14   height=23   xoffset=1    yoffset=10   xadvance=16   page=0    chnl=0 
char id=192     x=99   y=34   width=18   height=29   xoffset=-1   yoffset=-1   xadvance=16   page=0    chnl=0 
char id=193     x=117  y=34   width=18   height=29   xoffset=-1   yoffset=-1   xadvance=16   page=0    chnl=0 
char id=194     x=135  y=34   width=18   height=29   xoffset=-1   yoffset=-1   xadvance=16   page=0    chnl=0 
char id=195     x=475  y=64   width=18   height=28   xoffset=-1   yoffset=0    xadvance=16   page=0    chnl=0 
char id=196     x=493  y=64   width=18   height=28   xoffset=-1   yoffset=0    xadvance=16   page=0    chnl=0 
char id=197     x=0    y=93   width=18   height=28   xoffset=-1   yoffset=0    xadvance=16   page=0    chnl=0 
char id=198     x=84   y=298  width=19   height=23   xoffset=-1   yoffset=5    xadvance=16   page=0    chnl=0 
char id=199     x=18   y=93   width=16   height=28   xoffset=0    yoffset=5    xadvance=16   page=0    chnl=0 
char id=200     x=153  y=34   width=16   height=29   xoffset=1    yoffset=-1   xadvance=16   page=0    chnl=0 
char id=201     x=169  y=34   width=16   height=29   xoffset=1    yoffset=-1   xadvance=16   page=0    chnl=0 
char id=202     x=185  y=34   width=16   height=29   xoffset=1    yoffset=-1   xadvance=16   page=0    chnl=0 
char id=203     x=34   y=93   width=16   height=28   xoffset=1    yoffset=0    xadvance=16   page=0    chnl=0 
char id=204     x=201  y=34   width=15   height=29   xoffset=1    yoffset=-1   xadvance=16   page=0    chnl=0 
char id=205     x=216  y=34   width=15   height=29   xoffset=1    yoffset=-1   xadvance=16   page=0    chnl=0 
char id=206     x=231  y=34   width=15   height=29   xoffset=1    yoffset=-1   xadvance=16   page=0    chnl=0 
char id=207     x=50   y=93   width=15   height=28   xoffset=1    yoffset=0    xadvance=16   page=0    chnl=0 
char id=208     x=103  y=298  width=17   height=23   xoffset=0    yoffset=5    xadvance=16   page=0    chnl=0 
char id=209     x=65   y=93   width=17   height=28   xoffset=0    yoffset=0    xadvance=16   page=0    chnl=0 
char id=210     x=246  y=34   width=17   height=29   xoffset=0    yoffset=-1   xadvance=16   page=0    chnl=0 
char id=211     x=263  y=34   width=17   height=29   xoffset=0    yoffset=-1   xadvance=16   page=0    chnl=0 
char id=212     x=280  y=34   width=17   height=29   xoffset=0    yoffset=-1   xadvance=16   page=0    chnl=0 
char id=213     x=82   y=93   width=17   height=28   xoffset=0    yoffset=0    xadvance=16   page=0    chnl=0 
char id=214     x=99   y=93   width=17   height=28   xoffset=0    yoffset=0    xadvance=16   page=0    chnl=0 
char id=215     x=435  y=453  width=14   height=15   xoffset=1    yoffset=11   xadvance=16   page=0    chnl=0 
char id=216     x=179  y=202  width=17   height=24   xoffset=0    yoffset=5    xadvance=16   page=0    chnl=0 
char id=217     x=297  y=34   width=17   height=29   xoffset=0    yoffset=-1   xadvance=16   page=0    chnl=0 
char id=218     x=314  y=34   width=17   height=29   xoffset=0    yoffset=-1   xadvance=16   page=0    chnl=0 
char id=219     x=331  y=34   width=17   height=29   xoffset=0    yoffset=-1   xadvance=16   page=0    chnl=0 
char id=220     x=116  y=93   width=17   height=28   xoffset=0    yoffset=0    xadvance=16   page=0    chnl=0 
char id=221     x=348  y=34   width=18   height=29   xoffset=-1   yoffset=-1   xadvance=16   page=0    chnl=0 
char id=222     x=120  y=298  width=16   height=23   xoffset=1    yoffset=5    xadvance=16   page=0    chnl=0 
char id=223     x=64   y=177  width=18   height=25   xoffset=0    yoffset=3    xadvance=16   page=0    chnl=0 
char id=224     x=196  y=202  width=16   height=24   xoffset=0    yoffset=4    xadvance=16   page=0    chnl=0 
char id=225     x=212  y=202  width=16   height=24   xoffset=0    yoffset=4    xadvance=16   page=0    chnl=0 
char id=226     x=228  y=202  width=16   height=24   xoffset=0    yoffset=4    xadvance=16   page=0    chnl=0 
char id=227     x=244  y=202  width=16   height=24   xoffset=0    yoffset=4    xadvance=16   page=0    chnl=0 
char id=228     x=260  y=202  width=16   height=24   xoffset=0    yoffset=4    xadvance=16   page=0    chnl=0 
char id=229     x=410  y=149  width=16   height=26   xoffset=0    yoffset=2    xadvance=16   page=0    chnl=0 
char id=230     x=357  y=413  width=17   height=18   xoffset=0    yoffset=10   xadvance=16   page=0    chnl=0 
char id=231     x=136  y=298  width=17   height=23   xoffset=0    yoffset=10   xadvance=16   page=0    chnl=0 
char id=232     x=276  y=202  width=17   height=24   xoffset=0    yoffset=4    xadvance=16   page=0    chnl=0 
char id=233     x=293  y=202  width=17   height=24   xoffset=0    yoffset=4    xadvance=16   page=0    chnl=0 
char id=234     x=310  y=202  width=17   height=24   xoffset=0    yoffset=4    xadvance=16   page=0    chnl=0 
char id=235     x=327  y=202  width=17   height=24   xoffset=0    yoffset=4    xadvance=16   page=0    chnl=0 
char id=236     x=344  y=202  width=16   height=24   xoffset=0    yoffset=4    xadvance=16   page=0    chnl=0 
char id=237     x=360  y=202  width=16   height=24   xoffset=0    yoffset=4    xadvance=16   page=0    chnl=0 
char id=238     x=376  y=202  width=16   height=24   xoffset=0    yoffset=4    xadvance=16   page=0    chnl=0 
char id=239     x=392  y=202  width=16   height=24   xoffset=0    yoffset=4    xadvance=16   page=0    chnl=0 
char id=240     x=408  y=202  width=16   height=24   xoffset=0    yoffset=4    xadvance=16   page=0    chnl=0 
char id=241     x=424  y=202  width=15   height=24   xoffset=1    yoffset=4    xadvance=16   page=0    chnl=0 
char id=242     x=439  y=202  width=17   height=24   xoffset=0    yoffset=4    xadvance=16   page=0    chnl=0 
char id=243     x=456  y=202  width=17   height=24   xoffset=0    yoffset=4    xadvance=16   page=0    chnl=0 
char id=244     x=473  y=202  width=17   height=24   xoffset=0    yoffset=4    xadvance=16   page=0    chnl=0 
char id=245     x=490  y=202  width=17   height=24   xoffset=0    yoffset=4    xadvance=16   page=0    chnl=0 
char id=246     x=0    y=227  width=17   height=24   xoffset=0    yoffset=4    xadvance=16   page=0    chnl=0 
char id=247     x=374  y=413  width=17   height=18   xoffset=0    yoffset=10   xadvance=16   page=0    chnl=0 
char id=248     x=117  y=413  width=17   height=19   xoffset=0    yoffset=10   xadvance=16   page=0    chnl=0 
char id=249     x=17   y=227  width=15   height=24   xoffset=1    yoffset=4    xadvance=16   page=0    chnl=0 
char id=250     x=32   y=227  width=15   height=24   xoffset=1    yoffset=4    xadvance=16   page=0    chnl=0 
char id=251     x=47   y=227  width=15   height=24   xoffset=1    yoffset=4    xadvance=16   page=0    chnl=0 
char id=252     x=62   y=227  width=15   height=24   xoffset=1    yoffset=4    xadvance=16   page=0    chnl=0 
char id=253     x=366  y=34   width=16   height=29   xoffset=0    yoffset=4    xadvance=16   page=0    chnl=0 
char id=254     x=157  y=0    width=16   height=30   xoffset=1    yoffset=3    xadvance=16   page=0    chnl=0 
char id=255     x=382  y=34   width=16   height=29   xoffset=0    yoffset=4    xadvance=16   page=0    chnl=0 
char id=256     x=133  y=93   width=18   height=28   xoffset=-1   yoffset=0    xadvance=16   page=0    chnl=0 
char id=257     x=77   y=227  width=16   height=24   xoffset=0    yoffset=4    xadvance=16   page=0    chnl=0 
char id=258     x=398  y=34   width=18   height=29   xoffset=-1   yoffset=-1   xadvance=16   page=0    chnl=0 
char id=259     x=82   y=177  width=16   height=25   xoffset=0    yoffset=3    xadvance=16   page=0    chnl=0 
char id=260     x=151  y=93   width=19   height=28   xoffset=-1   yoffset=5    xadvance=16   page=0    chnl=0 
char id=261     x=153  y=298  width=16   height=23   xoffset=0    yoffset=10   xadvance=16   page=0    chnl=0 
char id=262     x=416  y=34   width=16   height=29   xoffset=0    yoffset=-1   xadvance=16   page=0    chnl=0 
char id=263     x=93   y=227  width=16   height=24   xoffset=0    yoffset=4    xadvance=16   page=0    chnl=0 
char id=264     x=432  y=34   width=16   height=29   xoffset=0    yoffset=-1   xadvance=16   page=0    chnl=0 
char id=265     x=109  y=227  width=16   height=24   xoffset=0    yoffset=4    xadvance=16   page=0    chnl=0 
char id=266     x=170  y=93   width=16   height=28   xoffset=0    yoffset=0    xadvance=16   page=0    chnl=0 
char id=267     x=125  y=227  width=16   height=24   xoffset=0    yoffset=4    xadvance=16   page=0    chnl=0 
char id=268     x=173  y=0    width=16   height=30   xoffset=0    yoffset=-2   xadvance=16   page=0    chnl=0 
char id=269     x=98   y=177  width=16   height=25   xoffset=0    yoffset=3    xadvance=16   page=0    chnl=0 
char id=270     x=189  y=0    width=16   height=30   xoffset=1    yoffset=-2   xadvance=16   page=0    chnl=0 
char id=271     x=114  y=177  width=18   height=25   xoffset=0    yoffset=3    xadvance=16   page=0    chnl=0 
char id=272     x=103  y=298  width=17   height=23   xoffset=0    yoffset=5    xadvance=16   page=0    chnl=0 
char id=273     x=132  y=177  width=17   height=25   xoffset=0    yoffset=3    xadvance=16   page=0    chnl=0 
char id=274     x=186  y=93   width=16   height=28   xoffset=1    yoffset=0    xadvance=16   page=0    chnl=0 
char id=275     x=141  y=227  width=17   height=24   xoffset=0    yoffset=4    xadvance=16   page=0    chnl=0 
char id=276     x=448  y=34   width=16   height=29   xoffset=1    yoffset=-1   xadvance=16   page=0    chnl=0 
char id=277     x=149  y=177  width=17   height=25   xoffset=0    yoffset=3    xadvance=16   page=0    chnl=0 
char id=278     x=202  y=93   width=16   height=28   xoffset=1    yoffset=0    xadvance=16   page=0    chnl=0 
char id=279     x=158  y=227  width=17   height=24   xoffset=0    yoffset=4    xadvance=16   page=0    chnl=0 
char id=280     x=218  y=93   width=16   height=28   xoffset=1    yoffset=5    xadvance=16   page=0    chnl=0 
char id=281     x=169  y=298  width=17   height=23   xoffset=0    yoffset=10   xadvance=16   page=0    chnl=0 
char id=282     x=205  y=0    width=16   height=30   xoffset=1    yoffset=-2   xadvance=16   page=0    chnl=0 
char id=283     x=166  y=177  width=17   height=25   xoffset=0    yoffset=3    xadvance=16   page=0    chnl=0 
char id=284     x=464  y=34   width=17   height=29   xoffset=0    yoffset=-1   xadvance=16   page=0    chnl=0 
char id=285     x=481  y=34   width=16   height=29   xoffset=0    yoffset=4    xadvance=16   page=0    chnl=0 
char id=286     x=0    y=64   width=17   height=29   xoffset=0    yoffset=-1   xadvance=16   page=0    chnl=0 
char id=287     x=221  y=0    width=16   height=30   xoffset=0    yoffset=3    xadvance=16   page=0    chnl=0 
char id=288     x=234  y=93   width=17   height=28   xoffset=0    yoffset=0    xadvance=16   page=0    chnl=0 
char id=289     x=17   y=64   width=16   height=29   xoffset=0    yoffset=4    xadvance=16   page=0    chnl=0 
char id=290     x=251  y=93   width=17   height=28   xoffset=0    yoffset=5    xadvance=16   page=0    chnl=0 
char id=291     x=237  y=0    width=16   height=30   xoffset=0    yoffset=3    xadvance=16   page=0    chnl=0 
char id=292     x=33   y=64   width=17   height=29   xoffset=0    yoffset=-1   xadvance=16   page=0    chnl=0 
char id=293     x=50   y=64   width=15   height=29   xoffset=1    yoffset=-1   xadvance=16   page=0    chnl=0 
char id=294     x=186  y=298  width=17   height=23   xoffset=0    yoffset=5    xadvance=16   page=0    chnl=0 
char id=295     x=183  y=177  width=16   height=25   xoffset=0    yoffset=3    xadvance=16   page=0    chnl=0 
char id=296     x=268  y=93   width=15   height=28   xoffset=1    yoffset=0    xadvance=16   page=0    chnl=0 
char id=297     x=175  y=227  width=16   height=24   xoffset=0    yoffset=4    xadvance=16   page=0    chnl=0 
char id=298     x=283  y=93   width=15   height=28   xoffset=1    yoffset=0    xadvance=16   page=0    chnl=0 
char id=299     x=191  y=227  width=16   height=24   xoffset=0    yoffset=4    xadvance=16   page=0    chnl=0 
char id=300     x=65   y=64   width=15   height=29   xoffset=1    yoffset=-1   xadvance=16   page=0    chnl=0 
char id=301     x=199  y=177  width=16   height=25   xoffset=0    yoffset=3    xadvance=16   page=0    chnl=0 
char id=302     x=298  y=93   width=15   height=28   xoffset=1    yoffset=5    xadvance=16   page=0    chnl=0 
char id=303     x=253  y=0    width=16   height=30   xoffset=0    yoffset=3    xadvance=16   page=0    chnl=0 
char id=304     x=80   y=64   width=15   height=29   xoffset=1    yoffset=-1   xadvance=16   page=0    chnl=0 
char id=305     x=391  y=413  width=16   height=18   xoffset=0    yoffset=10   xadvance=16   page=0    chnl=0 
char id=306     x=203  y=298  width=17   height=23   xoffset=0    yoffset=5    xadvance=16   page=0    chnl=0 
char id=307     x=269  y=0    width=15   height=30   xoffset=1    yoffset=3    xadvance=16   page=0    chnl=0 
char id=308     x=95   y=64   width=16   height=29   xoffset=0    yoffset=-1   xadvance=16   page=0    chnl=0 
char id=309     x=497  y=34   width=14   height=29   xoffset=1    yoffset=4    xadvance=16   page=0    chnl=0 
char id=310     x=313  y=93   width=17   height=28   xoffset=0    yoffset=5    xadvance=16   page=0    chnl=0 
char id=311     x=284  y=0    width=16   height=30   xoffset=1    yoffset=3    xadvance=16   page=0    chnl=0 
char id=312     x=407  y=413  width=16   height=18   xoffset=1    yoffset=10   xadvance=16   page=0    chnl=0 
char id=313     x=111  y=64   width=16   height=29   xoffset=1    yoffset=-1   xadvance=16   page=0    chnl=0 
char id=314     x=127  y=64   width=16   height=29   xoffset=0    yoffset=-1   xadvance=16   page=0    chnl=0 
char id=315     x=330  y=93   width=16   height=28   xoffset=1    yoffset=5    xadvance=16   page=0    chnl=0 
char id=316     x=300  y=0    width=16   height=30   xoffset=0    yoffset=3    xadvance=16   page=0    chnl=0 
char id=317     x=220  y=298  width=16   height=23   xoffset=1    yoffset=5    xadvance=16   page=0    chnl=0 
char id=318     x=215  y=177  width=16   height=25   xoffset=0    yoffset=3    xadvance=16   page=0    chnl=0 
char id=319     x=236  y=298  width=16   height=23   xoffset=1    yoffset=5    xadvance=16   page=0    chnl=0 
char id=320     x=231  y=177  width=22   height=25   xoffset=0    yoffset=3    xadvance=16   page=0    chnl=0 
char id=321     x=252  y=298  width=18   height=23   xoffset=-1   yoffset=5    xadvance=16   page=0    chnl=0 
char id=322     x=253  y=177  width=16   height=25   xoffset=0    yoffset=3    xadvance=16   page=0    chnl=0 
char id=323     x=143  y=64   width=17   height=29   xoffset=0    yoffset=-1   xadvance=16   page=0    chnl=0 
char id=324     x=207  y=227  width=15   height=24   xoffset=1    yoffset=4    xadvance=16   page=0    chnl=0 
char id=325     x=346  y=93   width=17   height=28   xoffset=0    yoffset=5    xadvance=16   page=0    chnl=0 
char id=326     x=270  y=298  width=15   height=23   xoffset=1    yoffset=10   xadvance=16   page=0    chnl=0 
char id=327     x=316  y=0    width=17   height=30   xoffset=0    yoffset=-2   xadvance=16   page=0    chnl=0 
char id=328     x=269  y=177  width=15   height=25   xoffset=1    yoffset=3    xadvance=16   page=0    chnl=0 
char id=329     x=426  y=149  width=18   height=26   xoffset=-1   yoffset=2    xadvance=16   page=0    chnl=0 
char id=330     x=363  y=93   width=17   height=28   xoffset=0    yoffset=5    xadvance=16   page=0    chnl=0 
char id=331     x=285  y=298  width=15   height=23   xoffset=1    yoffset=10   xadvance=16   page=0    chnl=0 
char id=332     x=380  y=93   width=17   height=28   xoffset=0    yoffset=0    xadvance=16   page=0    chnl=0 
char id=333     x=222  y=227  width=17   height=24   xoffset=0    yoffset=4    xadvance=16   page=0    chnl=0 
char id=334     x=160  y=64   width=17   height=29   xoffset=0    yoffset=-1   xadvance=16   page=0    chnl=0 
char id=335     x=284  y=177  width=17   height=25   xoffset=0    yoffset=3    xadvance=16   page=0    chnl=0 
char id=336     x=333  y=0    width=17   height=30   xoffset=0    yoffset=-2   xadvance=16   page=0    chnl=0 
char id=337     x=301  y=177  width=17   height=25   xoffset=0    yoffset=3    xadvance=16   page=0    chnl=0 
char id=338     x=300  y=298  width=17   height=23   xoffset=0    yoffset=5    xadvance=16   page=0    chnl=0 
char id=339     x=252  y=453  width=18   height=17   xoffset=0    yoffset=11   xadvance=16   page=0    chnl=0 
char id=340     x=177  y=64   width=15   height=29   xoffset=1    yoffset=-1   xadvance=16   page=0    chnl=0 
char id=341     x=239  y=227  width=14   height=24   xoffset=2    yoffset=4    xadvance=16   page=0    chnl=0 
char id=342     x=397  y=93   width=15   height=28   xoffset=1    yoffset=5    xadvance=16   page=0    chnl=0 
char id=343     x=317  y=298  width=15   height=23   xoffset=1    yoffset=10   xadvance=16   page=0    chnl=0 
char id=344     x=350  y=0    width=15   height=30   xoffset=1    yoffset=-2   xadvance=16   page=0    chnl=0 
char id=345     x=318  y=177  width=14   height=25   xoffset=2    yoffset=3    xadvance=16   page=0    chnl=0 
char id=346     x=192  y=64   width=17   height=29   xoffset=0    yoffset=-1   xadvance=16   page=0    chnl=0 
char id=347     x=253  y=227  width=14   height=24   xoffset=1    yoffset=4    xadvance=16   page=0    chnl=0 
char id=348     x=209  y=64   width=17   height=29   xoffset=0    yoffset=-1   xadvance=16   page=0    chnl=0 
char id=349     x=267  y=227  width=14   height=24   xoffset=1    yoffset=4    xadvance=16   page=0    chnl=0 
char id=350     x=412  y=93   width=17   height=28   xoffset=0    yoffset=5    xadvance=16   page=0    chnl=0 
char id=351     x=332  y=298  width=15   height=23   xoffset=1    yoffset=10   xadvance=16   page=0    chnl=0 
char id=352     x=365  y=0    width=17   height=30   xoffset=0    yoffset=-2   xadvance=16   page=0    chnl=0 
char id=353     x=332  y=177  width=14   height=25   xoffset=1    yoffset=3    xadvance=16   page=0    chnl=0 
char id=354     x=429  y=93   width=17   height=28   xoffset=0    yoffset=5    xadvance=16   page=0    chnl=0 
char id=355     x=444  y=149  width=16   height=26   xoffset=0    yoffset=7    xadvance=16   page=0    chnl=0 
char id=356     x=382  y=0    width=17   height=30   xoffset=0    yoffset=-2   xadvance=16   page=0    chnl=0 
char id=357     x=346  y=177  width=17   height=25   xoffset=0    yoffset=3    xadvance=16   page=0    chnl=0 
char id=358     x=347  y=298  width=17   height=23   xoffset=0    yoffset=5    xadvance=16   page=0    chnl=0 
char id=359     x=186  y=390  width=17   height=22   xoffset=0    yoffset=6    xadvance=16   page=0    chnl=0 
char id=360     x=446  y=93   width=17   height=28   xoffset=0    yoffset=0    xadvance=16   page=0    chnl=0 
char id=361     x=281  y=227  width=15   height=24   xoffset=1    yoffset=4    xadvance=16   page=0    chnl=0 
char id=362     x=463  y=93   width=17   height=28   xoffset=0    yoffset=0    xadvance=16   page=0    chnl=0 
char id=363     x=296  y=227  width=15   height=24   xoffset=1    yoffset=4    xadvance=16   page=0    chnl=0 
char id=364     x=226  y=64   width=17   height=29   xoffset=0    yoffset=-1   xadvance=16   page=0    chnl=0 
char id=365     x=363  y=177  width=15   height=25   xoffset=1    yoffset=3    xadvance=16   page=0    chnl=0 
char id=366     x=399  y=0    width=17   height=30   xoffset=0    yoffset=-2   xadvance=16   page=0    chnl=0 
char id=367     x=460  y=149  width=15   height=26   xoffset=1    yoffset=2    xadvance=16   page=0    chnl=0 
char id=368     x=416  y=0    width=17   height=30   xoffset=0    yoffset=-2   xadvance=16   page=0    chnl=0 
char id=369     x=378  y=177  width=15   height=25   xoffset=1    yoffset=3    xadvance=16   page=0    chnl=0 
char id=370     x=480  y=93   width=17   height=28   xoffset=0    yoffset=5    xadvance=16   page=0    chnl=0 
char id=371     x=364  y=298  width=15   height=23   xoffset=1    yoffset=10   xadvance=16   page=0    chnl=0 
char id=372     x=243  y=64   width=16   height=29   xoffset=0    yoffset=-1   xadvance=16   page=0    chnl=0 
char id=373     x=311  y=227  width=18   height=24   xoffset=-1   yoffset=4    xadvance=16   page=0    chnl=0 
char id=374     x=259  y=64   width=18   height=29   xoffset=-1   yoffset=-1   xadvance=16   page=0    chnl=0 
char id=375     x=277  y=64   width=16   height=29   xoffset=0    yoffset=4    xadvance=16   page=0    chnl=0 
char id=376     x=0    y=121  width=18   height=28   xoffset=-1   yoffset=0    xadvance=16   page=0    chnl=0 
char id=377     x=293  y=64   width=17   height=29   xoffset=0    yoffset=-1   xadvance=16   page=0    chnl=0 
char id=378     x=329  y=227  width=15   height=24   xoffset=1    yoffset=4    xadvance=16   page=0    chnl=0 
char id=379     x=18   y=121  width=17   height=28   xoffset=0    yoffset=0    xadvance=16   page=0    chnl=0 
char id=380     x=344  y=227  width=15   height=24   xoffset=1    yoffset=4    xadvance=16   page=0    chnl=0 
char id=381     x=433  y=0    width=17   height=30   xoffset=0    yoffset=-2   xadvance=16   page=0    chnl=0 
char id=382     x=393  y=177  width=15   height=25   xoffset=1    yoffset=3    xadvance=16   page=0    chnl=0 
char id=383     x=408  y=177  width=14   height=25   xoffset=3    yoffset=3    xadvance=16   page=0    chnl=0 
char id=884     x=293  y=149  width=17   height=27   xoffset=1    yoffset=1    xadvance=16   page=0    chnl=0 
char id=900     x=503  y=390  width=8    height=9    xoffset=4    yoffset=3    xadvance=16   page=0    chnl=0 
char id=901     x=159  y=471  width=15   height=9    xoffset=0    yoffset=3    xadvance=16   page=0    chnl=0 
char id=902     x=379  y=298  width=19   height=23   xoffset=-2   yoffset=5    xadvance=16   page=0    chnl=0 
char id=904     x=398  y=298  width=27   height=23   xoffset=-6   yoffset=5    xadvance=16   page=0    chnl=0 
char id=905     x=425  y=298  width=27   height=23   xoffset=-6   yoffset=5    xadvance=16   page=0    chnl=0 
char id=906     x=452  y=298  width=26   height=23   xoffset=-6   yoffset=5    xadvance=16   page=0    chnl=0 
char id=908     x=478  y=298  width=26   height=23   xoffset=-5   yoffset=5    xadvance=16   page=0    chnl=0 
char id=910     x=0    y=321  width=28   height=23   xoffset=-6   yoffset=5    xadvance=16   page=0    chnl=0 
char id=911     x=28   y=321  width=27   height=23   xoffset=-5   yoffset=5    xadvance=16   page=0    chnl=0 
char id=912     x=422  y=177  width=16   height=25   xoffset=0    yoffset=3    xadvance=16   page=0    chnl=0 
char id=913     x=55   y=321  width=18   height=23   xoffset=-1   yoffset=5    xadvance=16   page=0    chnl=0 
char id=914     x=73   y=321  width=16   height=23   xoffset=1    yoffset=5    xadvance=16   page=0    chnl=0 
char id=915     x=89   y=321  width=18   height=23   xoffset=0    yoffset=5    xadvance=16   page=0    chnl=0 
char id=916     x=107  y=321  width=18   height=23   xoffset=-1   yoffset=5    xadvance=16   page=0    chnl=0 
char id=917     x=125  y=321  width=16   height=23   xoffset=1    yoffset=5    xadvance=16   page=0    chnl=0 
char id=918     x=141  y=321  width=17   height=23   xoffset=0    yoffset=5    xadvance=16   page=0    chnl=0 
char id=919     x=158  y=321  width=17   height=23   xoffset=0    yoffset=5    xadvance=16   page=0    chnl=0 
char id=920     x=175  y=321  width=18   height=23   xoffset=0    yoffset=5    xadvance=16   page=0    chnl=0 
char id=921     x=193  y=321  width=15   height=23   xoffset=1    yoffset=5    xadvance=16   page=0    chnl=0 
char id=922     x=208  y=321  width=17   height=23   xoffset=0    yoffset=5    xadvance=16   page=0    chnl=0 
char id=923     x=225  y=321  width=18   height=23   xoffset=-1   yoffset=5    xadvance=16   page=0    chnl=0 
char id=924     x=243  y=321  width=17   height=23   xoffset=0    yoffset=5    xadvance=16   page=0    chnl=0 
char id=925     x=260  y=321  width=17   height=23   xoffset=0    yoffset=5    xadvance=16   page=0    chnl=0 
char id=926     x=277  y=321  width=17   height=23   xoffset=0    yoffset=5    xadvance=16   page=0    chnl=0 
char id=927     x=169  y=390  width=17   height=22   xoffset=0    yoffset=6    xadvance=16   page=0    chnl=0 
char id=928     x=294  y=321  width=16   height=23   xoffset=0    yoffset=5    xadvance=16   page=0    chnl=0 
char id=929     x=310  y=321  width=16   height=23   xoffset=1    yoffset=5    xadvance=16   page=0    chnl=0 
char id=931     x=326  y=321  width=17   height=23   xoffset=0    yoffset=5    xadvance=16   page=0    chnl=0 
char id=932     x=343  y=321  width=17   height=23   xoffset=0    yoffset=5    xadvance=16   page=0    chnl=0 
char id=933     x=360  y=321  width=18   height=23   xoffset=-1   yoffset=5    xadvance=16   page=0    chnl=0 
char id=934     x=359  y=227  width=17   height=24   xoffset=0    yoffset=4    xadvance=16   page=0    chnl=0 
char id=935     x=378  y=321  width=18   height=23   xoffset=-1   yoffset=5    xadvance=16   page=0    chnl=0 
char id=936     x=396  y=321  width=17   height=23   xoffset=0    yoffset=5    xadvance=16   page=0    chnl=0 
char id=937     x=203  y=390  width=19   height=22   xoffset=-1   yoffset=6    xadvance=16   page=0    chnl=0 
char id=938     x=35   y=121  width=15   height=28   xoffset=1    yoffset=0    xadvance=16   page=0    chnl=0 
char id=939     x=0    y=121  width=18   height=28   xoffset=-1   yoffset=0    xadvance=16   page=0    chnl=0 
char id=940     x=438  y=177  width=16   height=25   xoffset=0    yoffset=3    xadvance=16   page=0    chnl=0 
char id=941     x=454  y=177  width=15   height=25   xoffset=1    yoffset=3    xadvance=16   page=0    chnl=0 
char id=942     x=450  y=0    width=15   height=30   xoffset=1    yoffset=3    xadvance=16   page=0    chnl=0 
char id=943     x=469  y=177  width=16   height=25   xoffset=0    yoffset=3    xadvance=16   page=0    chnl=0 
char id=944     x=485  y=177  width=15   height=25   xoffset=1    yoffset=3    xadvance=16   page=0    chnl=0 
char id=945     x=423  y=413  width=16   height=18   xoffset=0    yoffset=10   xadvance=16   page=0    chnl=0 
char id=946     x=465  y=0    width=16   height=30   xoffset=1    yoffset=3    xadvance=16   page=0    chnl=0 
char id=947     x=413  y=321  width=18   height=23   xoffset=-1   yoffset=10   xadvance=16   page=0    chnl=0 
char id=948     x=0    y=202  width=17   height=25   xoffset=0    yoffset=3    xadvance=16   page=0    chnl=0 
char id=949     x=439  y=413  width=15   height=18   xoffset=1    yoffset=10   xadvance=16   page=0    chnl=0 
char id=950     x=481  y=0    width=16   height=30   xoffset=1    yoffset=3    xadvance=16   page=0    chnl=0 
char id=951     x=431  y=321  width=15   height=23   xoffset=1    yoffset=10   xadvance=16   page=0    chnl=0 
char id=952     x=17   y=202  width=17   height=25   xoffset=0    yoffset=3    xadvance=16   page=0    chnl=0 
char id=953     x=454  y=413  width=16   height=18   xoffset=0    yoffset=10   xadvance=16   page=0    chnl=0 
char id=954     x=470  y=413  width=16   height=18   xoffset=1    yoffset=10   xadvance=16   page=0    chnl=0 
char id=955     x=34   y=202  width=16   height=25   xoffset=0    yoffset=3    xadvance=16   page=0    chnl=0 
char id=956     x=446  y=321  width=15   height=23   xoffset=1    yoffset=10   xadvance=16   page=0    chnl=0 
char id=957     x=291  y=413  width=17   height=18   xoffset=-1   yoffset=10   xadvance=16   page=0    chnl=0 
char id=958     x=0    y=34   width=16   height=30   xoffset=1    yoffset=3    xadvance=16   page=0    chnl=0 
char id=959     x=270  y=453  width=17   height=17   xoffset=0    yoffset=11   xadvance=16   page=0    chnl=0 
char id=960     x=486  y=413  width=15   height=18   xoffset=1    yoffset=10   xadvance=16   page=0    chnl=0 
char id=961     x=222  y=390  width=16   height=22   xoffset=1    yoffset=11   xadvance=16   page=0    chnl=0 
char id=962     x=461  y=321  width=17   height=23   xoffset=0    yoffset=10   xadvance=16   page=0    chnl=0 
char id=963     x=0    y=435  width=18   height=18   xoffset=0    yoffset=10   xadvance=16   page=0    chnl=0 
char id=964     x=18   y=435  width=16   height=18   xoffset=0    yoffset=10   xadvance=16   page=0    chnl=0 
char id=965     x=34   y=435  width=15   height=18   xoffset=1    yoffset=10   xadvance=16   page=0    chnl=0 
char id=966     x=478  y=321  width=17   height=23   xoffset=0    yoffset=10   xadvance=16   page=0    chnl=0 
char id=967     x=49   y=435  width=16   height=18   xoffset=0    yoffset=10   xadvance=16   page=0    chnl=0 
char id=968     x=0    y=344  width=17   height=23   xoffset=0    yoffset=10   xadvance=16   page=0    chnl=0 
char id=969     x=65   y=435  width=16   height=18   xoffset=0    yoffset=10   xadvance=16   page=0    chnl=0 
char id=970     x=376  y=227  width=16   height=24   xoffset=0    yoffset=4    xadvance=16   page=0    chnl=0 
char id=971     x=392  y=227  width=15   height=24   xoffset=1    yoffset=4    xadvance=16   page=0    chnl=0 
char id=972     x=50   y=202  width=17   height=25   xoffset=0    yoffset=3    xadvance=16   page=0    chnl=0 
char id=973     x=67   y=202  width=15   height=25   xoffset=1    yoffset=3    xadvance=16   page=0    chnl=0 
char id=974     x=82   y=202  width=16   height=25   xoffset=0    yoffset=3    xadvance=16   page=0    chnl=0 
char id=1024    x=310  y=64   width=16   height=29   xoffset=1    yoffset=-1   xadvance=16   page=0    chnl=0 
char id=1025    x=50   y=121  width=16   height=28   xoffset=1    yoffset=0    xadvance=16   page=0    chnl=0 
char id=1026    x=17   y=344  width=19   height=23   xoffset=0    yoffset=5    xadvance=16   page=0    chnl=0 
char id=1027    x=326  y=64   width=18   height=29   xoffset=0    yoffset=-1   xadvance=16   page=0    chnl=0 
char id=1028    x=495  y=321  width=16   height=23   xoffset=0    yoffset=5    xadvance=16   page=0    chnl=0 
char id=1029    x=36   y=344  width=17   height=23   xoffset=0    yoffset=5    xadvance=16   page=0    chnl=0 
char id=1030    x=53   y=344  width=15   height=23   xoffset=1    yoffset=5    xadvance=16   page=0    chnl=0 
char id=1031    x=66   y=121  width=15   height=28   xoffset=1    yoffset=0    xadvance=16   page=0    chnl=0 
char id=1032    x=68   y=344  width=16   height=23   xoffset=0    yoffset=5    xadvance=16   page=0    chnl=0 
char id=1033    x=84   y=344  width=18   height=23   xoffset=-1   yoffset=5    xadvance=16   page=0    chnl=0 
char id=1034    x=102  y=344  width=17   height=23   xoffset=0    yoffset=5    xadvance=16   page=0    chnl=0 
char id=1035    x=119  y=344  width=17   height=23   xoffset=0    yoffset=5    xadvance=16   page=0    chnl=0 
char id=1036    x=344  y=64   width=17   height=29   xoffset=0    yoffset=-1   xadvance=16   page=0    chnl=0 
char id=1037    x=361  y=64   width=17   height=29   xoffset=0    yoffset=-1   xadvance=16   page=0    chnl=0 
char id=1038    x=81   y=121  width=18   height=28   xoffset=-1   yoffset=0    xadvance=16   page=0    chnl=0 
char id=1039    x=99   y=121  width=17   height=28   xoffset=0    yoffset=5    xadvance=16   page=0    chnl=0 
char id=1040    x=136  y=344  width=18   height=23   xoffset=-1   yoffset=5    xadvance=16   page=0    chnl=0 
char id=1041    x=154  y=344  width=16   height=23   xoffset=1    yoffset=5    xadvance=16   page=0    chnl=0 
char id=1042    x=170  y=344  width=16   height=23   xoffset=1    yoffset=5    xadvance=16   page=0    chnl=0 
char id=1043    x=186  y=344  width=18   height=23   xoffset=0    yoffset=5    xadvance=16   page=0    chnl=0 
char id=1044    x=116  y=121  width=18   height=28   xoffset=-1   yoffset=5    xadvance=16   page=0    chnl=0 
char id=1045    x=204  y=344  width=16   height=23   xoffset=1    yoffset=5    xadvance=16   page=0    chnl=0 
char id=1046    x=220  y=344  width=18   height=23   xoffset=-1   yoffset=5    xadvance=16   page=0    chnl=0 
char id=1047    x=238  y=344  width=17   height=23   xoffset=0    yoffset=5    xadvance=16   page=0    chnl=0 
char id=1048    x=255  y=344  width=17   height=23   xoffset=0    yoffset=5    xadvance=16   page=0    chnl=0 
char id=1049    x=134  y=121  width=17   height=28   xoffset=0    yoffset=0    xadvance=16   page=0    chnl=0 
char id=1050    x=272  y=344  width=17   height=23   xoffset=0    yoffset=5    xadvance=16   page=0    chnl=0 
char id=1051    x=289  y=344  width=18   height=23   xoffset=-1   yoffset=5    xadvance=16   page=0    chnl=0 
char id=1052    x=307  y=344  width=17   height=23   xoffset=0    yoffset=5    xadvance=16   page=0    chnl=0 
char id=1053    x=324  y=344  width=17   height=23   xoffset=0    yoffset=5    xadvance=16   page=0    chnl=0 
char id=1054    x=238  y=390  width=17   height=22   xoffset=0    yoffset=6    xadvance=16   page=0    chnl=0 
char id=1055    x=341  y=344  width=16   height=23   xoffset=0    yoffset=5    xadvance=16   page=0    chnl=0 
char id=1056    x=357  y=344  width=16   height=23   xoffset=1    yoffset=5    xadvance=16   page=0    chnl=0 
char id=1057    x=373  y=344  width=16   height=23   xoffset=0    yoffset=5    xadvance=16   page=0    chnl=0 
char id=1058    x=389  y=344  width=17   height=23   xoffset=0    yoffset=5    xadvance=16   page=0    chnl=0 
char id=1059    x=406  y=344  width=18   height=23   xoffset=-1   yoffset=5    xadvance=16   page=0    chnl=0 
char id=1060    x=359  y=227  width=17   height=24   xoffset=0    yoffset=4    xadvance=16   page=0    chnl=0 
char id=1061    x=424  y=344  width=18   height=23   xoffset=-1   yoffset=5    xadvance=16   page=0    chnl=0 
char id=1062    x=151  y=121  width=17   height=28   xoffset=0    yoffset=5    xadvance=16   page=0    chnl=0 
char id=1063    x=442  y=344  width=16   height=23   xoffset=0    yoffset=5    xadvance=16   page=0    chnl=0 
char id=1064    x=458  y=344  width=18   height=23   xoffset=0    yoffset=5    xadvance=16   page=0    chnl=0 
char id=1065    x=168  y=121  width=17   height=28   xoffset=0    yoffset=5    xadvance=16   page=0    chnl=0 
char id=1066    x=476  y=344  width=16   height=23   xoffset=0    yoffset=5    xadvance=16   page=0    chnl=0 
char id=1067    x=492  y=344  width=17   height=23   xoffset=0    yoffset=5    xadvance=16   page=0    chnl=0 
char id=1068    x=0    y=367  width=15   height=23   xoffset=1    yoffset=5    xadvance=16   page=0    chnl=0 
char id=1069    x=255  y=390  width=16   height=22   xoffset=0    yoffset=6    xadvance=16   page=0    chnl=0 
char id=1070    x=15   y=367  width=17   height=23   xoffset=0    yoffset=5    xadvance=16   page=0    chnl=0 
char id=1071    x=32   y=367  width=17   height=23   xoffset=0    yoffset=5    xadvance=16   page=0    chnl=0 
char id=1072    x=81   y=435  width=16   height=18   xoffset=0    yoffset=10   xadvance=16   page=0    chnl=0 
char id=1073    x=98   y=202  width=17   height=25   xoffset=0    yoffset=3    xadvance=16   page=0    chnl=0 
char id=1074    x=97   y=435  width=16   height=18   xoffset=1    yoffset=10   xadvance=16   page=0    chnl=0 
char id=1075    x=113  y=435  width=14   height=18   xoffset=2    yoffset=10   xadvance=16   page=0    chnl=0 
char id=1076    x=271  y=390  width=17   height=22   xoffset=0    yoffset=10   xadvance=16   page=0    chnl=0 
char id=1077    x=127  y=435  width=17   height=18   xoffset=0    yoffset=10   xadvance=16   page=0    chnl=0 
char id=1078    x=144  y=435  width=18   height=18   xoffset=-1   yoffset=10   xadvance=16   page=0    chnl=0 
char id=1079    x=162  y=435  width=15   height=18   xoffset=1    yoffset=10   xadvance=16   page=0    chnl=0 
char id=1080    x=177  y=435  width=14   height=18   xoffset=1    yoffset=10   xadvance=16   page=0    chnl=0 
char id=1081    x=407  y=227  width=14   height=24   xoffset=1    yoffset=4    xadvance=16   page=0    chnl=0 
char id=1082    x=191  y=435  width=16   height=18   xoffset=1    yoffset=10   xadvance=16   page=0    chnl=0 
char id=1083    x=207  y=435  width=17   height=18   xoffset=0    yoffset=10   xadvance=16   page=0    chnl=0 
char id=1084    x=224  y=435  width=16   height=18   xoffset=0    yoffset=10   xadvance=16   page=0    chnl=0 
char id=1085    x=240  y=435  width=15   height=18   xoffset=1    yoffset=10   xadvance=16   page=0    chnl=0 
char id=1086    x=270  y=453  width=17   height=17   xoffset=0    yoffset=11   xadvance=16   page=0    chnl=0 
char id=1087    x=255  y=435  width=15   height=18   xoffset=1    yoffset=10   xadvance=16   page=0    chnl=0 
char id=1088    x=49   y=367  width=16   height=23   xoffset=1    yoffset=10   xadvance=16   page=0    chnl=0 
char id=1089    x=270  y=435  width=16   height=18   xoffset=0    yoffset=10   xadvance=16   page=0    chnl=0 
char id=1090    x=286  y=435  width=17   height=18   xoffset=0    yoffset=10   xadvance=16   page=0    chnl=0 
char id=1091    x=65   y=367  width=16   height=23   xoffset=0    yoffset=10   xadvance=16   page=0    chnl=0 
char id=1092    x=16   y=34   width=18   height=30   xoffset=0    yoffset=3    xadvance=16   page=0    chnl=0 
char id=1093    x=303  y=435  width=16   height=18   xoffset=0    yoffset=10   xadvance=16   page=0    chnl=0 
char id=1094    x=288  y=390  width=16   height=22   xoffset=1    yoffset=10   xadvance=16   page=0    chnl=0 
char id=1095    x=319  y=435  width=16   height=18   xoffset=0    yoffset=10   xadvance=16   page=0    chnl=0 
char id=1096    x=335  y=435  width=16   height=18   xoffset=0    yoffset=10   xadvance=16   page=0    chnl=0 
char id=1097    x=304  y=390  width=17   height=22   xoffset=0    yoffset=10   xadvance=16   page=0    chnl=0 
char id=1098    x=351  y=435  width=17   height=18   xoffset=0    yoffset=10   xadvance=16   page=0    chnl=0 
char id=1099    x=368  y=435  width=17   height=18   xoffset=0    yoffset=10   xadvance=16   page=0    chnl=0 
char id=1100    x=385  y=435  width=16   height=18   xoffset=1    yoffset=10   xadvance=16   page=0    chnl=0 
char id=1101    x=401  y=435  width=17   height=18   xoffset=0    yoffset=10   xadvance=16   page=0    chnl=0 
char id=1102    x=418  y=435  width=17   height=18   xoffset=0    yoffset=10   xadvance=16   page=0    chnl=0 
char id=1103    x=435  y=435  width=17   height=18   xoffset=0    yoffset=10   xadvance=16   page=0    chnl=0 
char id=1104    x=421  y=227  width=17   height=24   xoffset=0    yoffset=4    xadvance=16   page=0    chnl=0 
char id=1105    x=438  y=227  width=17   height=24   xoffset=0    yoffset=4    xadvance=16   page=0    chnl=0 
char id=1106    x=34   y=34   width=16   height=30   xoffset=0    yoffset=3    xadvance=16   page=0    chnl=0 
char id=1107    x=455  y=227  width=14   height=24   xoffset=2    yoffset=4    xadvance=16   page=0    chnl=0 
char id=1108    x=452  y=435  width=17   height=18   xoffset=0    yoffset=10   xadvance=16   page=0    chnl=0 
char id=1109    x=469  y=435  width=14   height=18   xoffset=1    yoffset=10   xadvance=16   page=0    chnl=0 
char id=1110    x=115  y=202  width=16   height=25   xoffset=0    yoffset=3    xadvance=16   page=0    chnl=0 
char id=1111    x=469  y=227  width=16   height=24   xoffset=0    yoffset=4    xadvance=16   page=0    chnl=0 
char id=1112    x=50   y=34   width=15   height=30   xoffset=0    yoffset=3    xadvance=16   page=0    chnl=0 
char id=1113    x=483  y=435  width=18   height=18   xoffset=-1   yoffset=10   xadvance=16   page=0    chnl=0 
char id=1114    x=0    y=453  width=17   height=18   xoffset=0    yoffset=10   xadvance=16   page=0    chnl=0 
char id=1115    x=131  y=202  width=16   height=25   xoffset=0    yoffset=3    xadvance=16   page=0    chnl=0 
char id=1116    x=485  y=227  width=16   height=24   xoffset=1    yoffset=4    xadvance=16   page=0    chnl=0 
char id=1117    x=0    y=251  width=14   height=24   xoffset=1    yoffset=4    xadvance=16   page=0    chnl=0 
char id=1118    x=378  y=64   width=16   height=29   xoffset=0    yoffset=4    xadvance=16   page=0    chnl=0 
char id=1119    x=321  y=390  width=15   height=22   xoffset=1    yoffset=10   xadvance=16   page=0    chnl=0 
char id=1122    x=14   y=251  width=16   height=24   xoffset=0    yoffset=4    xadvance=16   page=0    chnl=0 
char id=1123    x=30   y=251  width=17   height=24   xoffset=0    yoffset=4    xadvance=16   page=0    chnl=0 
char id=1138    x=336  y=390  width=17   height=22   xoffset=0    yoffset=6    xadvance=16   page=0    chnl=0 
char id=1139    x=287  y=453  width=17   height=17   xoffset=0    yoffset=11   xadvance=16   page=0    chnl=0 
char id=1140    x=81   y=367  width=19   height=23   xoffset=-1   yoffset=5    xadvance=16   page=0    chnl=0 
char id=1141    x=17   y=453  width=18   height=18   xoffset=-1   yoffset=10   xadvance=16   page=0    chnl=0 
char id=1162    x=0    y=0    width=18   height=34   xoffset=0    yoffset=-1   xadvance=16   page=0    chnl=0 
char id=1163    x=394  y=64   width=15   height=29   xoffset=1    yoffset=4    xadvance=16   page=0    chnl=0 
char id=1164    x=100  y=367  width=17   height=23   xoffset=0    yoffset=5    xadvance=16   page=0    chnl=0 
char id=1165    x=35   y=453  width=17   height=18   xoffset=0    yoffset=10   xadvance=16   page=0    chnl=0 
char id=1166    x=117  y=367  width=15   height=23   xoffset=1    yoffset=5    xadvance=16   page=0    chnl=0 
char id=1167    x=132  y=367  width=16   height=23   xoffset=1    yoffset=10   xadvance=16   page=0    chnl=0 
char id=1168    x=310  y=149  width=18   height=27   xoffset=0    yoffset=1    xadvance=16   page=0    chnl=0 
char id=1169    x=353  y=390  width=15   height=22   xoffset=2    yoffset=6    xadvance=16   page=0    chnl=0 
char id=1170    x=148  y=367  width=17   height=23   xoffset=0    yoffset=5    xadvance=16   page=0    chnl=0 
char id=1171    x=52   y=453  width=16   height=18   xoffset=0    yoffset=10   xadvance=16   page=0    chnl=0 
char id=1172    x=185  y=121  width=17   height=28   xoffset=0    yoffset=5    xadvance=16   page=0    chnl=0 
char id=1173    x=165  y=367  width=16   height=23   xoffset=1    yoffset=10   xadvance=16   page=0    chnl=0 
char id=1174    x=202  y=121  width=19   height=28   xoffset=-1   yoffset=5    xadvance=16   page=0    chnl=0 
char id=1175    x=368  y=390  width=19   height=22   xoffset=-1   yoffset=10   xadvance=16   page=0    chnl=0 
char id=1176    x=221  y=121  width=17   height=28   xoffset=0    yoffset=5    xadvance=16   page=0    chnl=0 
char id=1177    x=181  y=367  width=15   height=23   xoffset=1    yoffset=10   xadvance=16   page=0    chnl=0 
char id=1178    x=238  y=121  width=17   height=28   xoffset=0    yoffset=5    xadvance=16   page=0    chnl=0 
char id=1179    x=387  y=390  width=16   height=22   xoffset=1    yoffset=10   xadvance=16   page=0    chnl=0 
char id=1180    x=196  y=367  width=17   height=23   xoffset=0    yoffset=5    xadvance=16   page=0    chnl=0 
char id=1181    x=68   y=453  width=17   height=18   xoffset=0    yoffset=10   xadvance=16   page=0    chnl=0 
char id=1182    x=147  y=202  width=17   height=25   xoffset=0    yoffset=3    xadvance=16   page=0    chnl=0 
char id=1183    x=134  y=413  width=17   height=19   xoffset=0    yoffset=9    xadvance=16   page=0    chnl=0 
char id=1184    x=213  y=367  width=17   height=23   xoffset=0    yoffset=5    xadvance=16   page=0    chnl=0 
char id=1185    x=85   y=453  width=17   height=18   xoffset=0    yoffset=10   xadvance=16   page=0    chnl=0 
char id=1186    x=255  y=121  width=17   height=28   xoffset=0    yoffset=5    xadvance=16   page=0    chnl=0 
char id=1187    x=403  y=390  width=16   height=22   xoffset=1    yoffset=10   xadvance=16   page=0    chnl=0 
char id=1188    x=230  y=367  width=17   height=23   xoffset=0    yoffset=5    xadvance=16   page=0    chnl=0 
char id=1189    x=102  y=453  width=16   height=18   xoffset=1    yoffset=10   xadvance=16   page=0    chnl=0 
char id=1190    x=272  y=121  width=17   height=28   xoffset=0    yoffset=5    xadvance=16   page=0    chnl=0 
char id=1191    x=47   y=251  width=17   height=24   xoffset=0    yoffset=10   xadvance=16   page=0    chnl=0 
char id=1192    x=289  y=121  width=17   height=28   xoffset=0    yoffset=5    xadvance=16   page=0    chnl=0 
char id=1193    x=419  y=390  width=17   height=22   xoffset=0    yoffset=10   xadvance=16   page=0    chnl=0 
char id=1194    x=306  y=121  width=16   height=28   xoffset=0    yoffset=5    xadvance=16   page=0    chnl=0 
char id=1195    x=247  y=367  width=17   height=23   xoffset=0    yoffset=10   xadvance=16   page=0    chnl=0 
char id=1196    x=322  y=121  width=17   height=28   xoffset=0    yoffset=5    xadvance=16   page=0    chnl=0 
char id=1197    x=436  y=390  width=17   height=22   xoffset=0    yoffset=10   xadvance=16   page=0    chnl=0 
char id=1198    x=264  y=367  width=18   height=23   xoffset=-1   yoffset=5    xadvance=16   page=0    chnl=0 
char id=1199    x=282  y=367  width=18   height=23   xoffset=-1   yoffset=10   xadvance=16   page=0    chnl=0 
char id=1200    x=300  y=367  width=18   height=23   xoffset=-1   yoffset=5    xadvance=16   page=0    chnl=0 
char id=1201    x=318  y=367  width=18   height=23   xoffset=-1   yoffset=10   xadvance=16   page=0    chnl=0 
char id=1202    x=339  y=121  width=18   height=28   xoffset=-1   yoffset=5    xadvance=16   page=0    chnl=0 
char id=1203    x=453  y=390  width=17   height=22   xoffset=0    yoffset=10   xadvance=16   page=0    chnl=0 
char id=1204    x=357  y=121  width=17   height=28   xoffset=0    yoffset=5    xadvance=16   page=0    chnl=0 
char id=1205    x=470  y=390  width=16   height=22   xoffset=0    yoffset=10   xadvance=16   page=0    chnl=0 
char id=1206    x=374  y=121  width=17   height=28   xoffset=0    yoffset=5    xadvance=16   page=0    chnl=0 
char id=1207    x=486  y=390  width=17   height=22   xoffset=0    yoffset=10   xadvance=16   page=0    chnl=0 
char id=1208    x=336  y=367  width=17   height=23   xoffset=0    yoffset=5    xadvance=16   page=0    chnl=0 
char id=1209    x=118  y=453  width=17   height=18   xoffset=0    yoffset=10   xadvance=16   page=0    chnl=0 
char id=1210    x=353  y=367  width=16   height=23   xoffset=1    yoffset=5    xadvance=16   page=0    chnl=0 
char id=1211    x=164  y=202  width=15   height=25   xoffset=1    yoffset=3    xadvance=16   page=0    chnl=0 
char id=1212    x=369  y=367  width=18   height=23   xoffset=-1   yoffset=5    xadvance=16   page=0    chnl=0 
char id=1213    x=135  y=453  width=18   height=18   xoffset=-1   yoffset=10   xadvance=16   page=0    chnl=0 
char id=1214    x=328  y=149  width=18   height=27   xoffset=-1   yoffset=5    xadvance=16   page=0    chnl=0 
char id=1215    x=0    y=413  width=18   height=22   xoffset=-1   yoffset=10   xadvance=16   page=0    chnl=0 
char id=1216    x=387  y=367  width=15   height=23   xoffset=1    yoffset=5    xadvance=16   page=0    chnl=0 
char id=1217    x=391  y=121  width=18   height=28   xoffset=-1   yoffset=0    xadvance=16   page=0    chnl=0 
char id=1218    x=64   y=251  width=18   height=24   xoffset=-1   yoffset=4    xadvance=16   page=0    chnl=0 
char id=1219    x=409  y=121  width=17   height=28   xoffset=0    yoffset=5    xadvance=16   page=0    chnl=0 
char id=1220    x=402  y=367  width=16   height=23   xoffset=1    yoffset=10   xadvance=16   page=0    chnl=0 
char id=1221    x=426  y=121  width=18   height=28   xoffset=-1   yoffset=5    xadvance=16   page=0    chnl=0 
char id=1222    x=418  y=367  width=17   height=23   xoffset=0    yoffset=10   xadvance=16   page=0    chnl=0 
char id=1223    x=444  y=121  width=16   height=28   xoffset=0    yoffset=5    xadvance=16   page=0    chnl=0 
char id=1224    x=435  y=367  width=15   height=23   xoffset=1    yoffset=10   xadvance=16   page=0    chnl=0 
char id=1225    x=460  y=121  width=17   height=28   xoffset=0    yoffset=5    xadvance=16   page=0    chnl=0 
char id=1226    x=450  y=367  width=16   height=23   xoffset=1    yoffset=10   xadvance=16   page=0    chnl=0 
char id=1227    x=477  y=121  width=17   height=28   xoffset=0    yoffset=5    xadvance=16   page=0    chnl=0 
char id=1228    x=18   y=413  width=16   height=22   xoffset=0    yoffset=10   xadvance=16   page=0    chnl=0 
char id=1229    x=0    y=149  width=18   height=28   xoffset=0    yoffset=5    xadvance=16   page=0    chnl=0 
char id=1230    x=466  y=367  width=17   height=23   xoffset=0    yoffset=10   xadvance=16   page=0    chnl=0 
char id=1231    x=483  y=367  width=15   height=23   xoffset=1    yoffset=5    xadvance=16   page=0    chnl=0 
char id=1232    x=18   y=149  width=18   height=28   xoffset=-1   yoffset=0    xadvance=16   page=0    chnl=0 
char id=1233    x=82   y=251  width=16   height=24   xoffset=0    yoffset=4    xadvance=16   page=0    chnl=0 
char id=1234    x=36   y=149  width=18   height=28   xoffset=-1   yoffset=0    xadvance=16   page=0    chnl=0 
char id=1235    x=98   y=251  width=16   height=24   xoffset=0    yoffset=4    xadvance=16   page=0    chnl=0 
char id=1236    x=0    y=390  width=19   height=23   xoffset=-1   yoffset=5    xadvance=16   page=0    chnl=0 
char id=1237    x=153  y=453  width=17   height=18   xoffset=0    yoffset=10   xadvance=16   page=0    chnl=0 
char id=1238    x=494  y=121  width=16   height=28   xoffset=1    yoffset=0    xadvance=16   page=0    chnl=0 
char id=1239    x=114  y=251  width=17   height=24   xoffset=0    yoffset=4    xadvance=16   page=0    chnl=0 
char id=1240    x=19   y=390  width=17   height=23   xoffset=0    yoffset=5    xadvance=16   page=0    chnl=0 
char id=1241    x=170  y=453  width=16   height=18   xoffset=0    yoffset=10   xadvance=16   page=0    chnl=0 
char id=1242    x=54   y=149  width=17   height=28   xoffset=0    yoffset=0    xadvance=16   page=0    chnl=0 
char id=1243    x=131  y=251  width=16   height=24   xoffset=0    yoffset=4    xadvance=16   page=0    chnl=0 
char id=1244    x=71   y=149  width=18   height=28   xoffset=-1   yoffset=0    xadvance=16   page=0    chnl=0 
char id=1245    x=147  y=251  width=18   height=24   xoffset=-1   yoffset=4    xadvance=16   page=0    chnl=0 
char id=1246    x=89   y=149  width=17   height=28   xoffset=0    yoffset=0    xadvance=16   page=0    chnl=0 
char id=1247    x=165  y=251  width=15   height=24   xoffset=1    yoffset=4    xadvance=16   page=0    chnl=0 
char id=1248    x=36   y=390  width=17   height=23   xoffset=0    yoffset=5    xadvance=16   page=0    chnl=0 
char id=1249    x=53   y=390  width=16   height=23   xoffset=0    yoffset=10   xadvance=16   page=0    chnl=0 
char id=1250    x=106  y=149  width=17   height=28   xoffset=0    yoffset=0    xadvance=16   page=0    chnl=0 
char id=1251    x=180  y=251  width=14   height=24   xoffset=1    yoffset=4    xadvance=16   page=0    chnl=0 
char id=1252    x=123  y=149  width=17   height=28   xoffset=0    yoffset=0    xadvance=16   page=0    chnl=0 
char id=1253    x=194  y=251  width=14   height=24   xoffset=1    yoffset=4    xadvance=16   page=0    chnl=0 
char id=1254    x=140  y=149  width=17   height=28   xoffset=0    yoffset=0    xadvance=16   page=0    chnl=0 
char id=1255    x=208  y=251  width=17   height=24   xoffset=0    yoffset=4    xadvance=16   page=0    chnl=0 
char id=1256    x=34   y=413  width=17   height=22   xoffset=0    yoffset=6    xadvance=16   page=0    chnl=0 
char id=1257    x=304  y=453  width=17   height=17   xoffset=0    yoffset=11   xadvance=16   page=0    chnl=0 
char id=1258    x=157  y=149  width=17   height=28   xoffset=0    yoffset=0    xadvance=16   page=0    chnl=0 
char id=1259    x=225  y=251  width=17   height=24   xoffset=0    yoffset=4    xadvance=16   page=0    chnl=0 
char id=1260    x=174  y=149  width=16   height=28   xoffset=0    yoffset=0    xadvance=16   page=0    chnl=0 
char id=1261    x=242  y=251  width=17   height=24   xoffset=0    yoffset=4    xadvance=16   page=0    chnl=0 
char id=1262    x=190  y=149  width=18   height=28   xoffset=-1   yoffset=0    xadvance=16   page=0    chnl=0 
char id=1263    x=409  y=64   width=16   height=29   xoffset=0    yoffset=4    xadvance=16   page=0    chnl=0 
char id=1264    x=208  y=149  width=18   height=28   xoffset=-1   yoffset=0    xadvance=16   page=0    chnl=0 
char id=1265    x=425  y=64   width=16   height=29   xoffset=0    yoffset=4    xadvance=16   page=0    chnl=0 
char id=1266    x=65   y=34   width=18   height=30   xoffset=-1   yoffset=-2   xadvance=16   page=0    chnl=0 
char id=1267    x=83   y=34   width=16   height=30   xoffset=0    yoffset=3    xadvance=16   page=0    chnl=0 
char id=1268    x=226  y=149  width=16   height=28   xoffset=0    yoffset=0    xadvance=16   page=0    chnl=0 
char id=1269    x=259  y=251  width=16   height=24   xoffset=0    yoffset=4    xadvance=16   page=0    chnl=0 
char id=1270    x=346  y=149  width=17   height=27   xoffset=0    yoffset=5    xadvance=16   page=0    chnl=0 
char id=1271    x=51   y=413  width=14   height=22   xoffset=2    yoffset=10   xadvance=16   page=0    chnl=0 
char id=1272    x=242  y=149  width=17   height=28   xoffset=0    yoffset=0    xadvance=16   page=0    chnl=0 
char id=1273    x=275  y=251  width=17   height=24   xoffset=0    yoffset=4    xadvance=16   page=0    chnl=0 
char id=8211    x=273  y=471  width=16   height=6    xoffset=1    yoffset=15   xadvance=16   page=0    chnl=0 
char id=8212    x=289  y=471  width=19   height=6    xoffset=-1   yoffset=15   xadvance=16   page=0    chnl=0 
char id=8213    x=289  y=471  width=19   height=6    xoffset=-1   yoffset=15   xadvance=16   page=0    chnl=0 
char id=8216    x=502  y=453  width=9    height=13   xoffset=4    yoffset=2    xadvance=16   page=0    chnl=0 
char id=8217    x=16   y=471  width=10   height=13   xoffset=4    yoffset=2    xadvance=16   page=0    chnl=0 
char id=8218    x=26   y=471  width=10   height=13   xoffset=3    yoffset=20   xadvance=16   page=0    chnl=0 
char id=8220    x=90   y=471  width=18   height=11   xoffset=0    yoffset=4    xadvance=16   page=0    chnl=0 
char id=8221    x=108  y=471  width=16   height=11   xoffset=0    yoffset=3    xadvance=16   page=0    chnl=0 
char id=8222    x=124  y=471  width=18   height=11   xoffset=-1   yoffset=22   xadvance=16   page=0    chnl=0 
char id=8224    x=497  y=93   width=14   height=27   xoffset=1    yoffset=5    xadvance=16   page=0    chnl=0 
char id=8225    x=497  y=0    width=14   height=27   xoffset=1    yoffset=5    xadvance=15   page=0    chnl=0 
char id=8226    x=78   y=471  width=12   height=12   xoffset=3    yoffset=10   xadvance=16   page=0    chnl=0 
char id=8230    x=308  y=471  width=16   height=6    xoffset=0    yoffset=22   xadvance=16   page=0    chnl=0 
char id=8240    x=65   y=413  width=19   height=22   xoffset=-1   yoffset=6    xadvance=16   page=0    chnl=0 
char id=8249    x=501  y=435  width=10   height=17   xoffset=3    yoffset=11   xadvance=16   page=0    chnl=0 
char id=8250    x=498  y=367  width=11   height=17   xoffset=4    yoffset=10   xadvance=16   page=0    chnl=0 
char id=8260    x=69   y=390  width=16   height=23   xoffset=0    yoffset=5    xadvance=16   page=0    chnl=0 
char id=8364    x=85   y=390  width=16   height=23   xoffset=0    yoffset=5    xadvance=16   page=0    chnl=0 
char id=8366    x=101  y=390  width=17   height=23   xoffset=0    yoffset=5    xadvance=16   page=0    chnl=0 
char id=8372    x=118  y=390  width=18   height=23   xoffset=0    yoffset=5    xadvance=16   page=0    chnl=0 
char id=8377    x=136  y=390  width=17   height=23   xoffset=0    yoffset=5    xadvance=16   page=0    chnl=0 
kernings count=0
